Introduction to linear regression
…
## Warning: Missing column names filled in: 'X1' [1]

## Parsed with column specification:
## cols(
##   X1 = col_integer(),
##   TV = col_double(),
##   radio = col_double(),
##   newspaper = col_double(),
##   sales = col_double()
## )

Advertising[,1] <- NULL 
Advertising

## # A tibble: 200 x 4
##       TV radio newspaper sales
##    <dbl> <dbl>     <dbl> <dbl>
##  1 230.1  37.8      69.2  22.1
##  2  44.5  39.3      45.1  10.4
##  3  17.2  45.9      69.3   9.3
##  4 151.5  41.3      58.5  18.5
##  5 180.8  10.8      58.4  12.9
##  6   8.7  48.9      75.0   7.2
##  7  57.5  32.8      23.5  11.8
##  8 120.2  19.6      11.6  13.2
##  9   8.6   2.1       1.0   4.8
## 10 199.8   2.6      21.2  10.6
## # ... with 190 more rows
…
Up to now, all of our predictors have been numeric. What if one of our predictors was categorical? Lets create a new feature called Size, and randomly assign observations to be small or large:

# set a seed for reproducibility
set.seed(12345)
# create a Series of booleans in which roughly half are True
nums       = runif(nrow(Advertising), 0, 1) 
mask_large = nums > 0.5  
# initially set Size to small, then change roughly half to be large
Advertising[['Size']] = rep('small',nrow(Advertising))
Advertising$Size[mask_large] = 'large'
Advertising$Size = as.factor(Advertising$Size)
#Advertising      =  Advertising %>% mutate(isLarge = factor(if_else(Size == "large",1,0))) %>% dplyr::select(-Size) 
Advertising

## # A tibble: 200 x 5
##       TV radio newspaper sales   Size
##    <dbl> <dbl>     <dbl> <dbl> <fctr>
##  1 230.1  37.8      69.2  22.1  large
##  2  44.5  39.3      45.1  10.4  large
##  3  17.2  45.9      69.3   9.3  large
##  4 151.5  41.3      58.5  18.5  large
##  5 180.8  10.8      58.4  12.9  small
##  6   8.7  48.9      75.0   7.2  small
##  7  57.5  32.8      23.5  11.8  small
##  8 120.2  19.6      11.6  13.2  large
##  9   8.6   2.1       1.0   4.8  large
## 10 199.8   2.6      21.2  10.6  large
## # ... with 190 more rows
…
# Advertising<-  read_csv('http://www-bcf.usc.edu/~gareth/ISL/Advertising.csv')
# Advertising[,1] <- NULL 
# set a seed for reproducibility
nums          = runif(nrow(Advertising), 0, 1) 
# initially set Size to small, then change
mask_suburban = (nums > 0.33) & (nums < 0.66)
mask_urban    = nums > 0.66
Advertising[['Area']]= rep('rural',nrow(Advertising))

Advertising$Area[mask_suburban] = 'suburban'
Advertising$Area[mask_urban] = 'urban'
Advertising

## # A tibble: 200 x 6
##       TV radio newspaper sales   Size     Area
##    <dbl> <dbl>     <dbl> <dbl> <fctr>    <chr>
##  1 230.1  37.8      69.2  22.1  large suburban
##  2  44.5  39.3      45.1  10.4  large    urban
##  3  17.2  45.9      69.3   9.3  large    rural
##  4 151.5  41.3      58.5  18.5  large suburban
##  5 180.8  10.8      58.4  12.9  small    urban
##  6   8.7  48.9      75.0   7.2  small    urban
##  7  57.5  32.8      23.5  11.8  small    rural
##  8 120.2  19.6      11.6  13.2  large    rural
##  9   8.6   2.1       1.0   4.8  large suburban
## 10 199.8   2.6      21.2  10.6  large suburban
## # ... with 190 more rows
…
Now lets turn to another case, there we are weighting standardize soil samples, we added a temperature treatment with two levels (Low, High) and we measured the soil nitrogen concentration, we would like to see the effects of the nitrogen concentration and its interaction with temperature on soil weight.

set.seed(12345)
# create a Series of booleans in which roughly half are True
nums       = runif(nrow(Advertising), 0, 1) 
mask_large = nums > 0.5  
# initially set Size to small, then change roughly half to be large
Advertising[['Size']] = rep('small',nrow(Advertising))
Advertising$Size[mask_large] = 'large'
Advertising$Size = as.factor(Advertising$Size)
#Advertising      =  Advertising %>% mutate(isLarge = factor(if_else(Size == "large",1,0))) %>% dplyr::select(-Size) 
Advertising

## # A tibble: 200 x 5
##       TV radio newspaper sales   Size
##    <dbl> <dbl>     <dbl> <dbl> <fctr>
##  1 230.1  37.8      69.2  22.1  large
##  2  44.5  39.3      45.1  10.4  large
##  3  17.2  45.9      69.3   9.3  large
##  4 151.5  41.3      58.5  18.5  large
##  5 180.8  10.8      58.4  12.9  small
##  6   8.7  48.9      75.0   7.2  small
##  7  57.5  32.8      23.5  11.8  small
##  8 120.2  19.6      11.6  13.2  large
##  9   8.6   2.1       1.0   4.8  large
## 10 199.8   2.6      21.2  10.6  large
## # ... with 190 more rows
…
